…
global = read.csv('C:\\Users\\user\\Desktop\\bigdata wldnjs\\r\\netflixglobal.csv')

global_1=global %>%
subset(weekly_rank==1)%>%
group_by(show_title) %>%
dplyr::summarise(MEAN=mean(weekly_hours_viewed), N=length(weekly_hours_viewed))
global_1

# A tibble: 71 x 3
   show_title                    MEAN     N
   <chr>                        <dbl> <int>
 1 Aftermath                 24200000     1
 2 All of Us Are Dead       124790000     1
 3 Anonymously Yours         12020000     1
 4 Arcane                    38420000     1
 5 Army of Thieves           60625000     2
 6 Black Island              11950000     2
 7 Blood Red Sky             44150000     2
 8 Brazen                    45340000     1
 9 Caf챕 con aroma de mujer  92730000     3
10 Clickbait                 63910000     2
# ... with 61 more rows
…
